verilog/hardware/processor/simulation/alu/alu_branch.vcd
$date
	Thu Jun  3 10:52:44 2021
$end
$version
	Icarus Verilog
$end
$timescale
	1ps
$end
$scope module top $end
$var wire 1 ! Branch_Enable $end
$var wire 7 " AluCtl_wire [6:0] $end
$var wire 32 # ALUOut [31:0] $end
$var reg 32 $ A [31:0] $end
$var reg 32 % B [31:0] $end
$var reg 4 & FuncCode [3:0] $end
$var reg 7 ' Opcode [6:0] $end
$var reg 1 ( clk $end
$scope module aluCtrl_inst $end
$var wire 4 ) FuncCode [3:0] $end
$var wire 7 * Opcode [6:0] $end
$var reg 7 + ALUCtl [6:0] $end
$upscope $end
$scope module alu_inst $end
$var wire 32 , A [31:0] $end
$var wire 7 - ALUctl [6:0] $end
$var wire 32 . B [31:0] $end
$var wire 32 / lessthan [31:0] $end
$var wire 32 0 xor_o [31:0] $end
$var wire 32 1 sub_o [31:0] $end
$var wire 1 2 sub_co $end
$var wire 32 3 adder_o [31:0] $end
$var reg 32 4 ALUOut [31:0] $end
$var reg 1 ! Branch_Enable $end
$scope module alu_adder $end
$var wire 32 5 input1 [31:0] $end
$var wire 32 6 input2 [31:0] $end
$var wire 32 7 out [31:0] $end
$var wire 32 8 dsp_o [31:0] $end
$var wire 1 9 dsp_co $end
$var reg 16 : dsp_a [15:0] $end
$var reg 1 ; dsp_addsubbot $end
$var reg 1 < dsp_addsubtop $end
$var reg 1 = dsp_ahold $end
$var reg 16 > dsp_b [15:0] $end
$var reg 1 ? dsp_bhold $end
$var reg 16 @ dsp_c [15:0] $end
$var reg 1 A dsp_ce $end
$var reg 1 B dsp_chold $end
$var reg 1 C dsp_ci $end
$var reg 16 D dsp_d [15:0] $end
$var reg 1 E dsp_dhold $end
$var reg 1 F dsp_irstbot $end
$var reg 1 G dsp_irsttop $end
$var reg 1 H dsp_oholdbot $end
$var reg 1 I dsp_oholdtop $end
$var reg 1 J dsp_oloadbot $end
$var reg 1 K dsp_oloadtop $end
$var reg 1 L dsp_orstbot $end
$var reg 1 M dsp_orsttop $end
$scope module SB_MAC16_adder $end
$var wire 16 N A [15:0] $end
$var wire 1 O ACCUMCI $end
$var wire 1 ; ADDSUBBOT $end
$var wire 1 < ADDSUBTOP $end
$var wire 1 = AHOLD $end
$var wire 16 P B [15:0] $end
$var wire 1 ? BHOLD $end
$var wire 16 Q C [15:0] $end
$var wire 1 A CE $end
$var wire 1 B CHOLD $end
$var wire 1 C CI $end
$var wire 1 R CLK $end
$var wire 1 9 CO $end
$var wire 16 S D [15:0] $end
$var wire 1 E DHOLD $end
$var wire 1 T HCI $end
$var wire 1 F IRSTBOT $end
$var wire 1 G IRSTTOP $end
$var wire 1 U LCI $end
$var wire 1 H OHOLDBOT $end
$var wire 1 I OHOLDTOP $end
$var wire 1 J OLOADBOT $end
$var wire 1 K OLOADTOP $end
$var wire 1 L ORSTBOT $end
$var wire 1 M ORSTTOP $end
$var wire 16 V Oh [15:0] $end
$var wire 16 W Ol [15:0] $end
$var wire 1 X SIGNEXTIN $end
$var wire 1 Y clock $end
$var wire 16 Z iA [15:0] $end
$var wire 16 [ iB [15:0] $end
$var wire 16 \ iC [15:0] $end
$var wire 16 ] iD [15:0] $end
$var wire 16 ^ iF [15:0] $end
$var wire 16 _ iG [15:0] $end
$var wire 32 ` iH [31:0] $end
$var wire 16 a iJ [15:0] $end
$var wire 16 b iK [15:0] $end
$var wire 16 c iQ [15:0] $end
$var wire 16 d iS [15:0] $end
$var wire 16 e iW [15:0] $end
$var wire 16 f iX [15:0] $end
$var wire 16 g iY [15:0] $end
$var wire 16 h iZ [15:0] $end
$var wire 16 i p_Al_Bl [15:0] $end
$var wire 16 j p_Al_Bh [15:0] $end
$var wire 16 k p_Ah_Bl [15:0] $end
$var wire 16 l p_Ah_Bh [15:0] $end
$var wire 16 m iR [15:0] $end
$var wire 16 n iP [15:0] $end
$var wire 32 o iL [31:0] $end
$var wire 24 p iK_e [23:0] $end
$var wire 24 q iJ_e [23:0] $end
$var wire 16 r YZ [15:0] $end
$var wire 16 s XW [15:0] $end
$var wire 1 t SIGNEXTOUT $end
$var wire 32 u O [31:0] $end
$var wire 1 v LCO $end
$var wire 16 w Bl [15:0] $end
$var wire 16 x Bh [15:0] $end
$var wire 16 y Al [15:0] $end
$var wire 16 z Ah [15:0] $end
$var wire 1 { ACCUMCO $end
$var reg 16 | rA [15:0] $end
$var reg 16 } rB [15:0] $end
$var reg 16 ~ rC [15:0] $end
$var reg 16 !" rD [15:0] $end
$var reg 16 "" rF [15:0] $end
$var reg 16 #" rG [15:0] $end
$var reg 32 $" rH [31:0] $end
$var reg 16 %" rJ [15:0] $end
$var reg 16 &" rK [15:0] $end
$var reg 16 '" rQ [15:0] $end
$var reg 16 (" rS [15:0] $end
$upscope $end
$upscope $end
$scope module alu_sub $end
$var wire 1 2 co $end
$var wire 32 )" input1 [31:0] $end
$var wire 32 *" input2 [31:0] $end
$var wire 32 +" out [31:0] $end
$var wire 32 ," dsp_o [31:0] $end
$var wire 1 -" dsp_co $end
$var reg 16 ." dsp_a [15:0] $end
$var reg 1 /" dsp_addsubbot $end
$var reg 1 0" dsp_addsubtop $end
$var reg 1 1" dsp_ahold $end
$var reg 16 2" dsp_b [15:0] $end
$var reg 1 3" dsp_bhold $end
$var reg 16 4" dsp_c [15:0] $end
$var reg 1 5" dsp_ce $end
$var reg 1 6" dsp_chold $end
$var reg 1 7" dsp_ci $end
$var reg 16 8" dsp_d [15:0] $end
$var reg 1 9" dsp_dhold $end
$var reg 1 :" dsp_irstbot $end
$var reg 1 ;" dsp_irsttop $end
$var reg 1 <" dsp_oholdbot $end
$var reg 1 =" dsp_oholdtop $end
$var reg 1 >" dsp_oloadbot $end
$var reg 1 ?" dsp_oloadtop $end
$var reg 1 @" dsp_orstbot $end
$var reg 1 A" dsp_orsttop $end
$scope module SB_MAC16_adder $end
$var wire 16 B" A [15:0] $end
$var wire 1 C" ACCUMCI $end
$var wire 1 /" ADDSUBBOT $end
$var wire 1 0" ADDSUBTOP $end
$var wire 1 1" AHOLD $end
$var wire 16 D" B [15:0] $end
$var wire 1 3" BHOLD $end
$var wire 16 E" C [15:0] $end
$var wire 1 5" CE $end
$var wire 1 6" CHOLD $end
$var wire 1 7" CI $end
$var wire 1 F" CLK $end
$var wire 1 -" CO $end
$var wire 16 G" D [15:0] $end
$var wire 1 9" DHOLD $end
$var wire 1 H" HCI $end
$var wire 1 :" IRSTBOT $end
$var wire 1 ;" IRSTTOP $end
$var wire 1 I" LCI $end
$var wire 1 <" OHOLDBOT $end
$var wire 1 =" OHOLDTOP $end
$var wire 1 >" OLOADBOT $end
$var wire 1 ?" OLOADTOP $end
$var wire 1 @" ORSTBOT $end
$var wire 1 A" ORSTTOP $end
$var wire 16 J" Oh [15:0] $end
$var wire 16 K" Ol [15:0] $end
$var wire 1 L" SIGNEXTIN $end
$var wire 1 M" clock $end
$var wire 16 N" iA [15:0] $end
$var wire 16 O" iB [15:0] $end
$var wire 16 P" iC [15:0] $end
$var wire 16 Q" iD [15:0] $end
$var wire 16 R" iF [15:0] $end
$var wire 16 S" iG [15:0] $end
$var wire 32 T" iH [31:0] $end
$var wire 16 U" iJ [15:0] $end
$var wire 16 V" iK [15:0] $end
$var wire 16 W" iQ [15:0] $end
$var wire 16 X" iS [15:0] $end
$var wire 16 Y" iW [15:0] $end
$var wire 16 Z" iX [15:0] $end
$var wire 16 [" iY [15:0] $end
$var wire 16 \" iZ [15:0] $end
$var wire 16 ]" p_Al_Bl [15:0] $end
$var wire 16 ^" p_Al_Bh [15:0] $end
$var wire 16 _" p_Ah_Bl [15:0] $end
$var wire 16 `" p_Ah_Bh [15:0] $end
$var wire 16 a" iR [15:0] $end
$var wire 16 b" iP [15:0] $end
$var wire 32 c" iL [31:0] $end
$var wire 24 d" iK_e [23:0] $end
$var wire 24 e" iJ_e [23:0] $end
$var wire 16 f" YZ [15:0] $end
$var wire 16 g" XW [15:0] $end
$var wire 1 h" SIGNEXTOUT $end
$var wire 32 i" O [31:0] $end
$var wire 1 j" LCO $end
$var wire 16 k" Bl [15:0] $end
$var wire 16 l" Bh [15:0] $end
$var wire 16 m" Al [15:0] $end
$var wire 16 n" Ah [15:0] $end
$var wire 1 o" ACCUMCO $end
$var reg 16 p" rA [15:0] $end
$var reg 16 q" rB [15:0] $end
$var reg 16 r" rC [15:0] $end
$var reg 16 s" rD [15:0] $end
$var reg 16 t" rF [15:0] $end
$var reg 16 u" rG [15:0] $end
$var reg 32 v" rH [31:0] $end
$var reg 16 w" rJ [15:0] $end
$var reg 16 x" rK [15:0] $end
$var reg 16 y" rQ [15:0] $end
$var reg 16 z" rS [15:0] $end
$upscope $end
$upscope $end
$upscope $end
$upscope $end
$enddefinitions $end
#0
$dumpvars
bx z"
bx y"
bx x"
bx w"
bx v"
bx u"
bx t"
bx s"
bx r"
bx q"
bx p"
0o"
b0 n"
b0 m"
b0 l"
b0 k"
0j"
b0 i"
0h"
b1111111111111111 g"
b1111111111111111 f"
b0 e"
b0 d"
b0 c"
b0 b"
b0 a"
b0 `"
b0 _"
b0 ^"
b0 ]"
b0 \"
b0 ["
b0 Z"
b0 Y"
bx X"
bx W"
b0 V"
b0 U"
b0 T"
b0 S"
b0 R"
b0 Q"
b0 P"
b0 O"
b0 N"
xM"
zL"
b0 K"
b0 J"
0I"
0H"
b0 G"
zF"
b0 E"
b0 D"
zC"
b0 B"
0A"
0@"
0?"
0>"
0="
0<"
0;"
0:"
09"
b0 8"
07"
06"
15"
b0 4"
03"
b0 2"
01"
10"
1/"
b0 ."
1-"
b0 ,"
b0 +"
b0 *"
b0 )"
bx ("
bx '"
bx &"
bx %"
bx $"
bx #"
bx ""
bx !"
bx ~
bx }
bx |
0{
b0 z
b0 y
b0 x
b0 w
0v
b0 u
0t
b0 s
b0 r
b0 q
b0 p
b0 o
b0 n
b0 m
b0 l
b0 k
b0 j
b0 i
b0 h
b0 g
b0 f
b0 e
bx d
bx c
b0 b
b0 a
b0 `
b0 _
b0 ^
b0 ]
b0 \
b0 [
b0 Z
xY
zX
b0 W
b0 V
0U
0T
b0 S
zR
b0 Q
b0 P
zO
b0 N
0M
0L
0K
0J
0I
0H
0G
0F
0E
b0 D
0C
0B
1A
b0 @
0?
b0 >
0=
0<
0;
b0 :
09
b0 8
b0 7
b0 6
b0 5
b0 4
b0 3
12
b0 1
b0 0
b0 /
b0 .
b1111 -
b0 ,
b1111 +
b0 *
b0 )
0(
b0 '
b0 &
b0 %
b0 $
b0 #
b1111 "
0!
$end
#1
1(
#2
0(
#3
1(
#4
0(
#5
b11111100111011010101111000001 #
b11111100111011010101111000001 4
b1011010111001111 W
b1011010111001111 m
b10100001101000111011010111001111 3
b10100001101000111011010111001111 7
b10100001101000111011010111001111 8
b10100001101000111011010111001111 u
b1010000110100011 V
b1010000110100011 n
b1010101111000001 K"
b1010101111000001 a"
b11111100111011010101111000001 1
b11111100111011010101111000001 +"
b11111100111011010101111000001 ,"
b11111100111011010101111000001 i"
b1111110011101 J"
b1111110011101 b"
b111000111 p
b111000111 b
b111000111 k
b1111 q
b1111 a
b1111 j
b111000111 d"
b111000111 V"
b111000111 _"
b1111 e"
b1111 U"
b1111 ^"
b1011010111001111 r
b101000101 ^
b101000101 l
b101 x
b1010001101101011000010101 `
b1010001101101011000010101 o
b10101 _
b10101 i
b111 w
b1010000110100011 s
b1000001 z
b11 y
b101010000111110 f"
0H"
0j"
b101000101 R"
b101000101 `"
b101 l"
b1010001101101011000010101 T"
b1010001101101011000010101 c"
b10101 S"
b10101 ]"
b111 k"
b1110000001100010 g"
b1000001 n"
b11 m"
b110110 "
b110110 +
b110110 -
b100001101000111011010111001111 0
b1011000011001000 g
b1011000011001000 ]
b1011000011001000 D
b1011000011001000 S
b10100000111 h
b10100000111 [
b10100000111 >
b10100000111 P
b100000100000011 f
b100000100000011 Z
b100000100000011 :
b100000100000011 N
b110000010100000 e
b110000010100000 \
b110000010100000 @
b110000010100000 Q
b1011000011001000 ["
b1011000011001000 Q"
b1011000011001000 8"
b1011000011001000 G"
b10100000111 \"
b10100000111 O"
b10100000111 2"
b10100000111 D"
b100000100000011 Z"
b100000100000011 N"
b100000100000011 ."
b100000100000011 B"
b110000010100000 Y"
b110000010100000 P"
b110000010100000 4"
b110000010100000 E"
1(
b1100011 '
b1100011 *
b100 &
b100 )
b1000001000000110000010100000111 %
b1000001000000110000010100000111 .
b1000001000000110000010100000111 6
b1000001000000110000010100000111 *"
b1100000101000001011000011001000 $
b1100000101000001011000011001000 ,
b1100000101000001011000011001000 5
b1100000101000001011000011001000 )"
#6
0(
#7
1(
#8
0(
#9
1(
#10
1!
b1 /
b11111001111111111111100000000010 #
b11111001111111111111100000000010 4
b1111100000000010 K"
b1111100000000010 a"
b11111001111111111111100000000010 1
b11111001111111111111100000000010 +"
b11111001111111111111100000000010 ,"
b11111001111111111111100000000010 i"
b1111100111111111 J"
b1111100111111111 b"
02
0-"
b1001000001100 W
b1001000001100 m
b10001000000001100001001000001100 3
b10001000000001100001001000001100 7
b10001000000001100001001000001100 8
b10001000000001100001001000001100 u
b1000100000000110 V
b1000100000000110 n
1H"
1j"
1o"
b11111111101 f"
b100111 e"
b100111 U"
b100111 ^"
b1101 l"
b11100111001000101000001111 T"
b11100111001000101000001111 c"
b1111 S"
b1111 ]"
b101 k"
b11000000000 g"
b1110011011 R"
b1110011011 `"
b101100011 d"
b101100011 V"
b101100011 _"
b1000111 n"
b1001000001100 r
b100111 q
b100111 a
b100111 j
b1101 x
b11100111001000101000001111 `
b11100111001000101000001111 o
b1111 _
b1111 i
b101 w
b1000100000000110 s
b1110011011 ^
b1110011011 l
b101100011 p
b101100011 b
b101100011 k
b1000111 z
b110000000000000100000000010 0
b10100000111 ["
b10100000111 Q"
b10100000111 8"
b10100000111 G"
b110100000101 \"
b110100000101 O"
b110100000101 2"
b110100000101 D"
b100011100000011 Z"
b100011100000011 N"
b100011100000011 ."
b100011100000011 B"
b100000100000011 Y"
b100000100000011 P"
b100000100000011 4"
b100000100000011 E"
b10100000111 g
b10100000111 ]
b10100000111 D
b10100000111 S
b110100000101 h
b110100000101 [
b110100000101 >
b110100000101 P
b100011100000011 f
b100011100000011 Z
b100011100000011 :
b100011100000011 N
b100000100000011 e
b100000100000011 \
b100000100000011 @
b100000100000011 Q
0(
b1000111000000110000110100000101 %
b1000111000000110000110100000101 .
b1000111000000110000110100000101 6
b1000111000000110000110100000101 *"
b1000001000000110000010100000111 $
b1000001000000110000010100000111 ,
b1000001000000110000010100000111 5
b1000001000000110000010100000111 )"
#11
1(
#12
0(
#13
1(
#14
0(
#15
0!
b0 /
12
1-"
b0 #
b0 4
1T
b110000110010000 W
b110000110010000 m
b11000001010000010110000110010000 3
b11000001010000010110000110010000 7
b11000001010000010110000110010000 8
b11000001010000010110000110010000 u
b1100000101000001 V
b1100000101000001 n
0o"
b0 K"
b0 a"
b0 1
b0 +"
b0 ,"
b0 i"
b0 J"
b0 b"
1v
0H"
0j"
b110000110010000 r
b110111000000000 q
b110111000000000 a
b110111000000000 j
b10110000 x
b11001000 w
b1100000101000001 s
b100001000000000 ^
b100001000000000 l
b100101100000000 p
b100101100000000 b
b100101100000000 k
b1100000 z
b1000010101110010111110100000000 `
b1000010101110010111110100000000 o
b111110100000000 _
b111110100000000 i
b10100000 y
b1111111111111111 f"
b111111111100111000000000 e"
b1100111000000000 U"
b1100111000000000 ^"
b1111111110110000 l"
b1111111111001000 k"
b1111111111111111 g"
b1110001000000000 R"
b1110001000000000 `"
b100101100000000 d"
b100101100000000 V"
b100101100000000 _"
b1100000 n"
b11100010000110010001010100000000 T"
b11100010000110010001010100000000 c"
b1010100000000 S"
b1010100000000 ]"
b1111111110100000 m"
b0 0
b1011000011001000 g
b1011000011001000 ]
b1011000011001000 D
b1011000011001000 S
b1011000011001000 h
b1011000011001000 [
b1011000011001000 >
b1011000011001000 P
b110000010100000 f
b110000010100000 Z
b110000010100000 :
b110000010100000 N
b110000010100000 e
b110000010100000 \
b110000010100000 @
b110000010100000 Q
b1011000011001000 ["
b1011000011001000 Q"
b1011000011001000 8"
b1011000011001000 G"
b1011000011001000 \"
b1011000011001000 O"
b1011000011001000 2"
b1011000011001000 D"
b110000010100000 Z"
b110000010100000 N"
b110000010100000 ."
b110000010100000 B"
b110000010100000 Y"
b110000010100000 P"
b110000010100000 4"
b110000010100000 E"
1(
b1100000101000001011000011001000 %
b1100000101000001011000011001000 .
b1100000101000001011000011001000 6
b1100000101000001011000011001000 *"
b1100000101000001011000011001000 $
b1100000101000001011000011001000 ,
b1100000101000001011000011001000 5
b1100000101000001011000011001000 )"
#16
0(
#17
1(
#18
0(
#19
1(
#20
b11100100101000100101111000 #
b11100100101000100101111000 4
b1000100101111000 K"
b1000100101111000 a"
b11100100101000100101111000 1
b11100100101000100101111000 +"
b11100100101000100101111000 ,"
b11100100101000100101111000 i"
b1110010010 J"
b1110010010 b"
b10001101111000 W
b10001101111000 m
b1000000110101100010001101111000 3
b1000000110101100010001101111000 7
b1000000110101100010001101111000 8
b1000000110101100010001101111000 u
b100000011010110 V
b100000011010110 n
19
1{
b111011010000111 f"
1H"
1j"
b111111111101111111101101 e"
b1101111111101101 U"
b1101111111101101 ^"
b1111111111001101 l"
b0 k"
b1111110001101101 g"
1h"
b1001110000110 R"
b1001110000110 `"
b0 d"
b0 V"
b0 _"
b1111111110011110 n"
b10011011001011110110100000000 T"
b10011011001011110110100000000 c"
b0 S"
b0 ]"
b1111111110100001 m"
b10001101111000 r
b1000000011101101 q
b1000000011101101 a
b1000000011101101 j
b11001101 x
b0 w
b100000011010110 s
1t
b111111010000110 ^
b111111010000110 l
b0 p
b0 b
b0 k
b10011110 z
b1111111000001101110110100000000 `
b1111111000001101110110100000000 o
b0 _
b0 i
b10100001 y
b111100100101011001101101111000 0
b101011001111000 ["
b101011001111000 Q"
b101011001111000 8"
b101011001111000 G"
b1100110100000000 \"
b1100110100000000 O"
b1100110100000000 2"
b1100110100000000 D"
b1001111010100001 Z"
b1001111010100001 N"
b1001111010100001 ."
b1001111010100001 B"
b1010001000110100 Y"
b1010001000110100 P"
b1010001000110100 4"
b1010001000110100 E"
b101011001111000 g
b101011001111000 ]
b101011001111000 D
b101011001111000 S
b1100110100000000 h
b1100110100000000 [
b1100110100000000 >
b1100110100000000 P
b1001111010100001 f
b1001111010100001 Z
b1001111010100001 :
b1001111010100001 N
b1010001000110100 e
b1010001000110100 \
b1010001000110100 @
b1010001000110100 Q
0(
b10011110101000011100110100000000 %
b10011110101000011100110100000000 .
b10011110101000011100110100000000 6
b10011110101000011100110100000000 *"
b10100010001101000101011001111000 $
b10100010001101000101011001111000 ,
b10100010001101000101011001111000 5
b10100010001101000101011001111000 )"
#21
1(
#22
0(
#23
1(
#24
0(
#25
1!
b1 /
b10110101110000110011100111111101 #
b10110101110000110011100111111101 4
b1010000110000101 W
b1010000110000101 m
b1011001000010001010000110000101 3
b1011001000010001010000110000101 7
b1011001000010001010000110000101 8
b1011001000010001010000110000101 u
b101100100001000 V
b101100100001000 n
b11100111111101 K"
b11100111111101 a"
b10110101110000110011100111111101 1
b10110101110000110011100111111101 +"
b10110101110000110011100111111101 ,"
b10110101110000110011100111111101 i"
b1011010111000011 J"
b1011010111000011 b"
b1010000000000100 p
b1010000000000100 b
b1010000000000100 k
0H"
0j"
b111111111101110000000100 d"
b1101110000000100 V"
b1101110000000100 _"
02
0-"
b1010000110000101 r
b111000101000110 q
b111000101000110 a
b111000101000110 j
b10110011 x
b10010011001101001100011000001000 `
b10010011001101001100011000001000 o
b111110000001000 _
b111110000001000 i
b11000100 w
b101100100001000 s
b1001001000100011 ^
b1001001000100011 l
b11010001 z
b10100010 y
b1100011000000010 f"
b111111111100111101000110 e"
b1100111101000110 U"
b1100111101000110 ^"
b1111111110110011 l"
b1101110011100110000000001000 T"
b1101110011100110000000001000 c"
b1011000001000 S"
b1011000001000 ]"
b1111111111000100 k"
b100101000111100 g"
1o"
b111000100011 R"
b111000100011 `"
b1111111111010001 n"
b1111111110100010 m"
b1010110110001110101111000000101 0
b1110110111000001 g
b1110110111000001 ]
b1110110111000001 D
b1110110111000001 S
b1011001111000100 h
b1011001111000100 [
b1011001111000100 >
b1011001111000100 P
b1101000110100010 f
b1101000110100010 Z
b1101000110100010 :
b1101000110100010 N
b1000011101100101 e
b1000011101100101 \
b1000011101100101 @
b1000011101100101 Q
b1110110111000001 ["
b1110110111000001 Q"
b1110110111000001 8"
b1110110111000001 G"
b1011001111000100 \"
b1011001111000100 O"
b1011001111000100 2"
b1011001111000100 D"
b1101000110100010 Z"
b1101000110100010 N"
b1101000110100010 ."
b1101000110100010 B"
b1000011101100101 Y"
b1000011101100101 P"
b1000011101100101 4"
b1000011101100101 E"
1(
b11010001101000101011001111000100 %
b11010001101000101011001111000100 .
b11010001101000101011001111000100 6
b11010001101000101011001111000100 *"
b10000111011001011110110111000001 $
b10000111011001011110110111000001 ,
b10000111011001011110110111000001 5
b10000111011001011110110111000001 )"
#26
0(
#27
1(
#28
0(
#29
1(
#30
0!
b0 /
b110000000000000000000000000000 #
b110000000000000000000000000000 4
b0 K"
b0 a"
b110000000000000000000000000000 1
b110000000000000000000000000000 +"
b110000000000000000000000000000 ,"
b110000000000000000000000000000 i"
b11000000000000 J"
b11000000000000 b"
b0 W
b0 m
b10000000000000000000000000000 3
b10000000000000000000000000000 7
b10000000000000000000000000000 8
b10000000000000000000000000000 u
b1000000000000 V
b1000000000000 n
0T
b1111111111111111 f"
b0 e"
b0 U"
b0 ^"
b0 l"
b0 k"
b1100111111111111 g"
b0 R"
b0 `"
b0 d"
b0 V"
b0 _"
b1111111111110000 n"
b0 T"
b0 c"
b0 S"
b0 ]"
b0 m"
b0 r
0v
b0 q
b0 a
b0 j
b0 x
b0 w
b1000000000000 s
b0 ^
b0 l
b0 p
b0 b
b0 k
b11110000 z
b0 `
b0 o
b0 _
b0 i
b0 y
b11010000000000000000000000000000 0
b0 ["
b0 Q"
b0 8"
b0 G"
b0 \"
b0 O"
b0 2"
b0 D"
b1111000000000000 Z"
b1111000000000000 N"
b1111000000000000 ."
b1111000000000000 B"
b10000000000000 Y"
b10000000000000 P"
b10000000000000 4"
b10000000000000 E"
b0 g
b0 ]
b0 D
b0 S
b0 h
b0 [
b0 >
b0 P
b1111000000000000 f
b1111000000000000 Z
b1111000000000000 :
b1111000000000000 N
b10000000000000 e
b10000000000000 \
b10000000000000 @
b10000000000000 Q
0(
b11110000000000000000000000000000 %
b11110000000000000000000000000000 .
b11110000000000000000000000000000 6
b11110000000000000000000000000000 *"
b100000000000000000000000000000 $
b100000000000000000000000000000 ,
b100000000000000000000000000000 5
b100000000000000000000000000000 )"
#31
1(
#32
0(
#33
1(
#34
0(
#35
b11000000000000000000000000000000 #
b11000000000000000000000000000000 4
b0 3
b0 7
b0 8
b0 u
b0 V
b0 n
b11000000000000000000000000000000 1
b11000000000000000000000000000000 +"
b11000000000000000000000000000000 ,"
b11000000000000000000000000000000 i"
b1100000000000000 J"
b1100000000000000 b"
b0 s
b10100000 z
b11111111111111 g"
b1111111110100000 n"
b11000000000000000000000000000000 0
b1010000000000000 f
b1010000000000000 Z
b1010000000000000 :
b1010000000000000 N
b110000000000000 e
b110000000000000 \
b110000000000000 @
b110000000000000 Q
b1010000000000000 Z"
b1010000000000000 N"
b1010000000000000 ."
b1010000000000000 B"
b110000000000000 Y"
b110000000000000 P"
b110000000000000 4"
b110000000000000 E"
1(
b10100000000000000000000000000000 %
b10100000000000000000000000000000 .
b10100000000000000000000000000000 6
b10100000000000000000000000000000 *"
b1100000000000000000000000000000 $
b1100000000000000000000000000000 ,
b1100000000000000000000000000000 5
b1100000000000000000000000000000 )"
#36
0(
#37
1(
#38
0(
#39
1(
#40
1!
b1 /
b11010000000000000000000000000000 #
b11010000000000000000000000000000 4
b11010000000000000000000000000000 1
b11010000000000000000000000000000 +"
b11010000000000000000000000000000 ,"
b11010000000000000000000000000000 i"
b1101000000000000 J"
b1101000000000000 b"
b10000000000000000000000000000 3
b10000000000000000000000000000 7
b10000000000000000000000000000 8
b10000000000000000000000000000 u
b1000000000000 V
b1000000000000 n
12
1-"
b10111111111111 g"
0o"
0h"
b100000 n"
b1000000000000 s
0t
b100000 z
b11010000000000000000000000000000 0
b10000000000000 Z"
b10000000000000 N"
b10000000000000 ."
b10000000000000 B"
b1111000000000000 Y"
b1111000000000000 P"
b1111000000000000 4"
b1111000000000000 E"
b10000000000000 f
b10000000000000 Z
b10000000000000 :
b10000000000000 N
b1111000000000000 e
b1111000000000000 \
b1111000000000000 @
b1111000000000000 Q
0(
b100000000000000000000000000000 %
b100000000000000000000000000000 .
b100000000000000000000000000000 6
b100000000000000000000000000000 *"
b11110000000000000000000000000000 $
b11110000000000000000000000000000 ,
b11110000000000000000000000000000 5
b11110000000000000000000000000000 )"
#41
1(
#42
0(
#43
1(
#44
0(
#45
b1000000000000000000000000000000 #
b1000000000000000000000000000000 4
b0 3
b0 7
b0 8
b0 u
b0 V
b0 n
b1000000000000000000000000000000 1
b1000000000000000000000000000000 +"
b1000000000000000000000000000000 ,"
b1000000000000000000000000000000 i"
b100000000000000 J"
b100000000000000 b"
b0 s
b1100000 z
b1011111111111111 g"
b1100000 n"
b11000000000000000000000000000000 0
b110000000000000 f
b110000000000000 Z
b110000000000000 :
b110000000000000 N
b1010000000000000 e
b1010000000000000 \
b1010000000000000 @
b1010000000000000 Q
b110000000000000 Z"
b110000000000000 N"
b110000000000000 ."
b110000000000000 B"
b1010000000000000 Y"
b1010000000000000 P"
b1010000000000000 4"
b1010000000000000 E"
1(
b1100000000000000000000000000000 %
b1100000000000000000000000000000 .
b1100000000000000000000000000000 6
b1100000000000000000000000000000 *"
b10100000000000000000000000000000 $
b10100000000000000000000000000000 ,
b10100000000000000000000000000000 5
b10100000000000000000000000000000 )"
#46
0(
#47
1(
#48
0(
#49
1(
#50
b11111100111011010101111000001 #
b11111100111011010101111000001 4
b0 /
b1010101111000001 K"
b1010101111000001 a"
b11111100111011010101111000001 1
b11111100111011010101111000001 +"
b11111100111011010101111000001 ,"
b11111100111011010101111000001 i"
b1111110011101 J"
b1111110011101 b"
b1011010111001111 W
b1011010111001111 m
b10100001101000111011010111001111 3
b10100001101000111011010111001111 7
b10100001101000111011010111001111 8
b10100001101000111011010111001111 u
b1010000110100011 V
b1010000110100011 n
b111000111 d"
b111000111 V"
b111000111 _"
b1111 e"
b1111 U"
b1111 ^"
b111000111 p
b111000111 b
b111000111 k
09
b1111 q
b1111 a
b1111 j
1!
b101010000111110 f"
0H"
0j"
b101000101 R"
b101000101 `"
b101 l"
b1010001101101011000010101 T"
b1010001101101011000010101 c"
b10101 S"
b10101 ]"
b111 k"
b1110000001100010 g"
b1000001 n"
b11 m"
b1011010111001111 r
b101000101 ^
b101000101 l
b101 x
b1010001101101011000010101 `
b1010001101101011000010101 o
b10101 _
b10101 i
b111 w
b1010000110100011 s
0{
b1000001 z
b11 y
b1000110 "
b1000110 +
b1000110 -
b100001101000111011010111001111 0
b1011000011001000 ["
b1011000011001000 Q"
b1011000011001000 8"
b1011000011001000 G"
b10100000111 \"
b10100000111 O"
b10100000111 2"
b10100000111 D"
b100000100000011 Z"
b100000100000011 N"
b100000100000011 ."
b100000100000011 B"
b110000010100000 Y"
b110000010100000 P"
b110000010100000 4"
b110000010100000 E"
b1011000011001000 g
b1011000011001000 ]
b1011000011001000 D
b1011000011001000 S
b10100000111 h
b10100000111 [
b10100000111 >
b10100000111 P
b100000100000011 f
b100000100000011 Z
b100000100000011 :
b100000100000011 N
b110000010100000 e
b110000010100000 \
b110000010100000 @
b110000010100000 Q
0(
b101 &
b101 )
b1000001000000110000010100000111 %
b1000001000000110000010100000111 .
b1000001000000110000010100000111 6
b1000001000000110000010100000111 *"
b1100000101000001011000011001000 $
b1100000101000001011000011001000 ,
b1100000101000001011000011001000 5
b1100000101000001011000011001000 )"
#51
1(
#52
0(
#53
1(
#54
0(
